{
	"id": 1,
	"name": "Evergreen Open Space",
	"location": {
		"city": "Goleta",
		"state": "CA"
	},
	"nrOfHoles": 18,
	"holes": [
		{
			"courseId": 1,
			"number": 1,
			"displayName": "1",
			"distance": 347,
			"par": 3
		},
		{
			"courseId": 1,
			"number": 2,
			"displayName": "2",
			"distance": 358,
			"par": 3
		},
		{
			"courseId": 1,
			"number": 3,
			"displayName": "3",
			"distance": 267,
			"par": 3
		},
		{
			"courseId": 1,
			"number": 4,
			"displayName": "4",
			"distance": 368,
			"par": 3
		},
		{
			"courseId": 1,
			"number": 5,
			"displayName": "5",
			"distance": 245,
			"par": 3
		},
		{
			"courseId": 1,
			"number": 6,
			"displayName": "6",
			"distance": 175,
			"par": 3
		},
		{
			"courseId": 1,
			"number": 7,
			"displayName": "7",
			"distance": 353,
			"par": 3
		},
		{
			"courseId": 1,
			"number": 8,
			"displayName": "8",
			"distance": 358,
			"par": 3
		},
		{
			"courseId": 1,
			"number": 9,
			"displayName": "9",
			"distance": 161,
			"par": 3
		},
		{
			"courseId": 1,
			"number": 10,
			"displayName": "10",
			"distance": 281,
			"par": 3
		},
		{
			"courseId": 1,
			"number": 11,
			"displayName": "11",
			"distance": 316,
			"par": 3
		},
		{
			"courseId": 1,
			"number": 12,
			"displayName": "12",
			"distance": 224,
			"par": 3
		},
		{
			"courseId": 1,
			"number": 13,
			"displayName": "13",
			"distance": 317,
			"par": 3
		},
		{
			"courseId": 1,
			"number": 14,
			"displayName": "14",
			"distance": 305,
			"par": 3
		},
		{
			"courseId": 1,
			"number": 15,
			"displayName": "15",
			"distance": 236,
			"par": 3
		},
		{
			"courseId": 1,
			"number": 16,
			"displayName": "16",
			"distance": 198,
			"par": 3
		},
		{
			"courseId": 1,
			"number": 17,
			"displayName": "17",
			"distance": 305,
			"par": 3
		},
		{
			"courseId": 1,
			"number": 18,
			"displayName": "18",
			"distance": 317,
			"par": 3
		}
	]
}
